Beads community data
…
beta4 <- rnorm(n_sp,
               mean = -0.5 * ts$lma,
               sd = 0.2)

beta <- cbind(beta0, beta1, beta2, beta3, beta4)

env2 <- tibble(intercept  = 1,
               env1 = env$env1,
               env2 = env$env2,
               interaction = env$env2 * env$env1,
               moist = env3$soil_moist)

env2

# A tibble: 60 × 5
   intercept  env1  env2 interaction   moist
       <dbl> <dbl> <dbl>       <dbl>   <dbl>
 1         1     0     1           0  0.193 
 2         1     0     1           0  0.0693
 3         1     0     1           0 -0.280 
 4         1     0     1           0 -1.18  
 5         1     0     1           0 -1.86  
 6         1     0     1           0 -2.41  
 7         1     0     1           0  0.198 
 8         1     0     1           0  0.0913
 9         1     0     1           0 -0.652 
10         1     1     1           1 -1.94  
# ℹ 50 more rows
…
